Card 데이터 분석
…
## `summarise()` ungrouping output (override with `.groups` argument)

각 store별 환불 빈도

minus_amount = 
  train %>% select(store_id, amount) %>%
  filter(amount < 0) %>% group_by(store_id) %>% tally()

나중에 전체 n으로 나누기(상대도수로 봐야 유의미)

공휴일에 문 닫는 store찾기

holiday_count

## # A tibble: 3,259 x 3
## # Groups:   store_id [1,775]
##    store_id holiday     n
##       <int>   <int> <int>
##  1        0       0 65046
##  2        0       1  3727
##  3        1       0    40
##  4        2       0 16386
##  5        2       1   443
##  6        3       0   380
##  7        3       1     3
##  8        4       0  2030
##  9        4       1    52
## 10        5       0   121
## # ... with 3,249 more rows
holiday_running = 
  holiday_count %>% select(store_id, train$holiday) %>%
  group_by(store_id) %>% tally()

holiday_close =
  holiday_running %>% filter(n == 1) 

holiday_open = 
  holiday_running %>% filter(n == 2)

주7일운영 store vs 주7일이하운영 store

week_count

## # A tibble: 11,613 x 3
## # Groups:   store_id [1,775]
##    store_id days_of_week     n
##       <int>        <int> <int>
##  1        0            0  9469
##  2        0            1  9645
##  3        0            2  9777
##  4        0            3  9623
##  5        0            4  9718
##  6        0            5 10103
##  7        0            6 10438
##  8        1            0    16
##  9        1            1    10
## 10        1            2     8
## # ... with 11,603 more rows
…
count              #store별 거래빈도수

## # A tibble: 1,775 x 2
##    store_id     n
##       <int> <int>
##  1        0 68160
##  2        1    40
##  3        2 16776
##  4        3   380
##  5        4  2077
##  6        5   116
##  7        6  2632
##  8        7   120
##  9        8  1139
## 10        9    12
## # ... with 1,765 more rows

avg                #store별 평균거래가격

## # A tibble: 1,775 x 2
##    store_id    avg
##       <int>  <dbl>
##  1        0   76.1
##  2        1 3699. 
##  3        2   96.0
##  4        3  164. 
##  5        4  130. 
##  6        5 1487. 
##  7        6  524. 
##  8        7  898. 
##  9        8  447. 
## 10        9 1520  
## # ... with 1,765 more rows

uniq               #store별 unique한 카드 개수(고객수)

## # A tibble: 1,775 x 2
##    store_id     n
##       <int> <int>
##  1        0 12727
##  2        1     8
##  3        2  9053
##  4        3   231
##  5        4  1176
##  6        5   101
##  7        6  1899
##  8        7    74
##  9        8   558
## 10        9     9
## # ... with 1,765 more rows

installment_count  #store별 할부한 고객수

## # A tibble: 1,016 x 2
##    store_id     n
##       <int> <int>
##  1        0   250
##  2        1    14
##  3        3     1
##  4        5    16
##  5        6    17
##  6        8     5
##  7        9     8
##  8       12    27
##  9       13     4
## 10       15     2
## # ... with 1,006 more rows

installment_avg    #store별 할부한 고객들의 평균 할부개월수

## # A tibble: 1,016 x 2
##    store_id mean_install
##       <int>        <dbl>
##  1        0         2.69
##  2        1         6.07
##  3        3         2   
##  4        5         2.88
##  5        6         2.65
##  6        8         3   
##  7        9         5   
##  8       12         3.33
##  9       13         3   
## 10       15         4   
## # ... with 1,006 more rows

minus_amount       #store별 환불한 고객수        

## # A tibble: 1,475 x 2
##    store_id     n
##       <int> <int>
##  1        0   613
##  2        2    53
##  3        3     3
##  4        4     5
##  5        5     8
##  6        6    21
##  7        7     2
##  8        8    14
##  9        9     1
## 10       12    50
## # ... with 1,465 more rows

month_count        #store별 월별 거래빈도

## # A tibble: 17,242 x 3
## # Groups:   store_id [1,775]
##    store_id month     n
##       <int> <dbl> <int>
##  1        0     1  6952
##  2        0     2  6043
##  3        0     3  6989
##  4        0     4  6883
##  5        0     5  7250
##  6        0     6  7209
##  7        0     7  7579
##  8        0     8  3949
##  9        0     9  3540
## 10        0    10  3484
## # ... with 17,232 more rows

month_avg          #store별 월별 평균거래가격

## # A tibble: 17,242 x 3
## # Groups:   store_id [1,775]
##    store_id month mean_month
##       <int> <dbl>      <dbl>
##  1        0     1       84.2
##  2        0     2       80.4
##  3        0     3       75.2
##  4        0     4       79.1
##  5        0     5       77.3
##  6        0     6       74.0
##  7        0     7       76.1
##  8        0     8       75.1
##  9        0     9       76.8
## 10        0    10       77.7
## # ... with 17,232 more rows

hour1              #store별 2시~6시(새벽) 거래빈도

## # A tibble: 501 x 2
##    store_id     n
##       <int> <int>
##  1        0  4271
##  2        2   737
##  3        8   245
##  4       12   146
##  5       13   193
##  6       15   129
##  7       16     7
##  8       20     4
##  9       21    76
## 10       24   918
## # ... with 491 more rows

hour2              #store별 6시~10시(아침&출근) 거래빈도

## # A tibble: 699 x 2
##    store_id     n
##       <int> <int>
##  1        0  5740
##  2        2  1368
##  3        5    11
##  4        6     2
##  5       12    29
##  6       14     7
##  7       15    18
##  8       23   476
##  9       24   312
## 10       32     1
## # ... with 689 more rows

hour3              #store별 10시~14시(낮&점심) 거래빈도

## # A tibble: 1,493 x 2
##    store_id     n
##       <int> <int>
##  1        0  8521
##  2        1     1
##  3        2  8447
##  4        3   111
##  5        4  1206
##  6        5    26
##  7        6   990
##  8        7     5
##  9        9     6
## 10       10     1
## # ... with 1,483 more rows

hour4              #store별 14시~18시(오후&일과) 거래빈도

## # A tibble: 1,653 x 2
##    store_id     n
##       <int> <int>
##  1        0 14144
##  2        1    28
##  3        2  2050
##  4        3   238
##  5        4   392
##  6        5    52
##  7        6   414
##  8        7    27
##  9        8     1
## 10        9     5
## # ... with 1,643 more rows

hour5              #store별 18시~22시(저녁&퇴근이후) 거래빈도

## # A tibble: 1,708 x 2
##    store_id     n
##       <int> <int>
##  1        0 23454
##  2        1    11
##  3        2  2902
##  4        3    31
##  5        4   479
##  6        5    26
##  7        6  1209
##  8        7    83
##  9        8    76
## 10        9     1
## # ... with 1,698 more rows

hour6              #store별 22시~2시(심야) 거래빈도

## # A tibble: 1,169 x 2
##    store_id     n
##       <int> <int>
##  1        0 12030
##  2        2  1272
##  3        5     1
##  4        6    17
##  5        7     5
##  6        8   817
##  7       12   310
##  8       13  2261
##  9       14     2
## 10       15    86
## # ... with 1,159 more rows

holiday_count      #store별 공휴일/비공휴일 거래빈도수

## # A tibble: 3,259 x 3
## # Groups:   store_id [1,775]
##    store_id holiday     n
##       <int>   <int> <int>
##  1        0       0 65046
##  2        0       1  3727
##  3        1       0    40
##  4        2       0 16386
##  5        2       1   443
##  6        3       0   380
##  7        3       1     3
##  8        4       0  2030
##  9        4       1    52
## 10        5       0   121
## # ... with 3,249 more rows

holiday_avg        #store별 공휴일/비공휴일 평균거래가격

## # A tibble: 3,259 x 3
## # Groups:   store_id [1,775]
##    store_id holiday mean_month
##       <int>   <int>      <dbl>
##  1        0       0       75.7
##  2        0       1       82.9
##  3        1       0     3699. 
##  4        2       0       96.0
##  5        2       1       96.6
##  6        3       0      164. 
##  7        3       1      152. 
##  8        4       0      130. 
##  9        4       1      136. 
## 10        5       0     1408. 
## # ... with 3,249 more rows

holiday_running

## # A tibble: 1,775 x 2
##    store_id     n
##       <int> <int>
##  1        0     2
##  2        1     1
##  3        2     2
##  4        3     2
##  5        4     2
##  6        5     2
##  7        6     2
##  8        7     2
##  9        8     2
## 10        9     1
## # ... with 1,765 more rows

holiday_open       #공휴일에도 영업하는 store

## # A tibble: 1,484 x 2
##    store_id     n
##       <int> <int>
##  1        0     2
##  2        2     2
##  3        3     2
##  4        4     2
##  5        5     2
##  6        6     2
##  7        7     2
##  8        8     2
##  9       12     2
## 10       13     2
## # ... with 1,474 more rows

holiday_close      #공휴일에 영업하지 않는 store

## # A tibble: 291 x 2
##    store_id     n
##       <int> <int>
##  1        1     1
##  2        9     1
##  3       10     1
##  4       27     1
##  5       31     1
##  6       48     1
##  7       53     1
##  8       61     1
##  9       74     1
## 10       75     1
## # ... with 281 more rows

week_count         #store별 요일별 거래빈도수

## # A tibble: 11,613 x 3
## # Groups:   store_id [1,775]
##    store_id days_of_week     n
##       <int>        <int> <int>
##  1        0            0  9469
##  2        0            1  9645
##  3        0            2  9777
##  4        0            3  9623
##  5        0            4  9718
##  6        0            5 10103
##  7        0            6 10438
##  8        1            0    16
##  9        1            1    10
## 10        1            2     8
## # ... with 11,603 more rows

week_avg           #store별 요일별 평균거래가격

## # A tibble: 11,613 x 3
## # Groups:   store_id [1,775]
##    store_id days_of_week mean_month
##       <int>        <int>      <dbl>
##  1        0            0       75.4
##  2        0            1       73.3
##  3        0            2       72.8
##  4        0            3       74.3
##  5        0            4       77.0
##  6        0            5       79.4
##  7        0            6       80.2
##  8        1            0     2838. 
##  9        1            1     5930  
## 10        1            2     1650  
## # ... with 11,603 more rows

week_running

## # A tibble: 1,775 x 2
##    store_id     n
##       <int> <int>
##  1        0     7
##  2        1     6
##  3        2     7
##  4        3     6
##  5        4     7
##  6        5     7
##  7        6     7
##  8        7     7
##  9        8     7
## 10        9     4
## # ... with 1,765 more rows

week_open          #주7일 영업하는 store

## # A tibble: 1,344 x 2
##    store_id     n
##       <int> <int>
##  1        0     7
##  2        2     7
##  3        4     7
##  4        5     7
##  5        6     7
##  6        7     7
##  7        8     7
##  8       12     7
##  9       13     7
## 10       14     7
## # ... with 1,334 more rows

week_close         #주7일 미만 영업하는 store

## # A tibble: 431 x 2
##    store_id     n
##       <int> <int>
##  1        1     6
##  2        3     6
##  3        9     4
##  4       10     4
##  5       31     6
##  6       42     5
##  7       44     5
##  8       48     5
##  9       49     6
## 10       53     6
## # ... with 421 more rows
…
